PART2/Part2/cpu_wavedata.vcd
$date
	Wed Jun 28 05:10:32 2023
$end
$version
	Icarus Verilog
$end
$timescale
	100ps
$end
$scope module cpu_tb $end
$var wire 32 ! dmemWRITEDATA [31:0] $end
$var wire 1 " dmemWRITE $end
$var wire 32 # dmemREADDATA [31:0] $end
$var wire 1 $ dmemREAD $end
$var wire 1 % dmemBUSYWAIT $end
$var wire 6 & dmemADDRESS [5:0] $end
$var wire 8 ' cpuWRITEDATA [7:0] $end
$var wire 1 ( cpuWRITE $end
$var wire 8 ) cpuREADDATA [7:0] $end
$var wire 1 * cpuREAD $end
$var wire 1 + cpuBUSYWAIT $end
$var wire 8 , cpuADDRESS [7:0] $end
$var wire 32 - PC [31:0] $end
$var wire 32 . INSTRUCTION [31:0] $end
$var reg 1 / CLK $end
$var reg 1 0 RESET $end
$scope module my_data_cache $end
$var wire 1 / clock $end
$var wire 1 0 reset $end
$var wire 32 1 dmemREADDATA [31:0] $end
$var wire 1 % dmemBUSYWAIT $end
$var wire 8 2 cpuWRITEDATA [7:0] $end
$var wire 1 ( cpuWRITE $end
$var wire 1 * cpuREAD $end
$var wire 8 3 cpuADDRESS [7:0] $end
$var wire 3 4 Tag [2:0] $end
$var wire 2 5 Offset [1:0] $end
$var wire 3 6 Index [2:0] $end
$var reg 8 7 cacheDirty [7:0] $end
$var reg 3 8 cacheTag [2:0] $end
$var reg 8 9 cacheValid [7:0] $end
$var reg 1 + cpuBUSYWAIT $end
$var reg 8 : cpuREADDATA [7:0] $end
$var reg 1 ; dirty $end
$var reg 6 < dmemADDRESS [5:0] $end
$var reg 1 $ dmemREAD $end
$var reg 1 " dmemWRITE $end
$var reg 32 = dmemWRITEDATA [31:0] $end
$var reg 1 > hit $end
$var reg 1 ? hit_or_miss $end
$var reg 3 @ next_state [2:0] $end
$var reg 1 A readFromCache $end
$var reg 3 B state [2:0] $end
$var reg 1 C update $end
$var reg 1 D valid $end
$var reg 1 E writeToCache $end
$var integer 32 F i [31:0] $end
$upscope $end
$scope module my_data_memory $end
$var wire 6 G address [5:0] $end
$var wire 1 / clock $end
$var wire 1 $ read $end
$var wire 1 0 reset $end
$var wire 1 " write $end
$var wire 32 H writedata [31:0] $end
$var reg 1 % busywait $end
$var reg 1 I readaccess $end
$var reg 32 J readdata [31:0] $end
$var reg 1 K writeaccess $end
$var integer 32 L i [31:0] $end
$upscope $end
$scope module mycpu $end
$var wire 8 M ADDRESS [7:0] $end
$var wire 1 + BUSYWAIT $end
$var wire 1 / CLK $end
$var wire 32 N INSTRUCTION [31:0] $end
$var wire 32 O PC_new [31:0] $end
$var wire 8 P READDATA [7:0] $end
$var wire 1 0 RESET $end
$var wire 8 Q WRITEDATA [7:0] $end
$var wire 1 R ZERO $end
$var wire 3 S WRITEREG [2:0] $end
$var wire 8 T TwosCompOperand [7:0] $end
$var wire 8 U TwosCompMuxOut [7:0] $end
$var wire 32 V TARGET_ADDR [31:0] $end
$var wire 8 W RegWrite [7:0] $end
$var wire 8 X REGOUT2 [7:0] $end
$var wire 8 Y REGOUT1 [7:0] $end
$var wire 3 Z READREG2 [2:0] $end
$var wire 3 [ READREG1 [2:0] $end
$var wire 32 \ PC_inc [31:0] $end
$var wire 8 ] OPERAND2 [7:0] $end
$var wire 8 ^ OFFSET [7:0] $end
$var wire 8 _ IMMEDIATE [7:0] $end
$var wire 1 ` FlowSelect $end
$var wire 8 a ALURESULT [7:0] $end
$var reg 3 b ALUOP [2:0] $end
$var reg 1 c BRANCH $end
$var reg 1 d ImmOrRegistered $end
$var reg 1 e JUMP $end
$var reg 8 f OPCODE [7:0] $end
$var reg 32 g PC [31:0] $end
$var reg 1 h PositiveOrNegative $end
$var reg 1 * READ $end
$var reg 1 i RegWriteSelect $end
$var reg 1 ( WRITE $end
$var reg 1 j WRITEENABLE $end
$scope module AluOrDataMemoryMux $end
$var wire 8 k IN2 [7:0] $end
$var wire 1 i SELECT $end
$var wire 8 l IN1 [7:0] $end
$var reg 8 m OUT [7:0] $end
$upscope $end
$scope module FlowControlMux $end
$var wire 1 ` SELECT $end
$var wire 32 n IN2 [31:0] $end
$var wire 32 o IN1 [31:0] $end
$var reg 32 p OUT [31:0] $end
$upscope $end
$scope module ImmediateMux $end
$var wire 8 q IN2 [7:0] $end
$var wire 1 d SELECT $end
$var wire 8 r IN1 [7:0] $end
$var reg 8 s OUT [7:0] $end
$upscope $end
$scope module MyAlu $end
$var wire 8 t DATA2 [7:0] $end
$var wire 3 u SELECT [2:0] $end
$var wire 1 R ZERO $end
$var wire 8 v Or_Out [7:0] $end
$var wire 8 w Forward_Out [7:0] $end
$var wire 8 x DATA1 [7:0] $end
$var wire 8 y And_Out [7:0] $end
$var wire 8 z Add_Out [7:0] $end
$var reg 8 { RESULT [7:0] $end
$scope module add1 $end
$var wire 8 | DATA2 [7:0] $end
$var wire 8 } RESULT [7:0] $end
$var wire 8 ~ DATA1 [7:0] $end
$upscope $end
$scope module and1 $end
$var wire 8 !" DATA2 [7:0] $end
$var wire 8 "" RESULT [7:0] $end
$var wire 8 #" DATA1 [7:0] $end
$upscope $end
$scope module forward1 $end
$var wire 8 $" DATA2 [7:0] $end
$var wire 8 %" RESULT [7:0] $end
$upscope $end
$scope module or1 $end
$var wire 8 &" DATA2 [7:0] $end
$var wire 8 '" RESULT [7:0] $end
$var wire 8 (" DATA1 [7:0] $end
$upscope $end
$upscope $end
$scope module MyControlFlow $end
$var wire 1 c BRANCH $end
$var wire 1 ` FLOW_SELECT $end
$var wire 1 e JUMP $end
$var wire 1 R ZERO $end
$upscope $end
$scope module MyPcAdder $end
$var wire 32 )" PC [31:0] $end
$var wire 32 *" IncrementedPC [31:0] $end
$upscope $end
$scope module MyRegFile $end
$var wire 1 / CLK $end
$var wire 8 +" IN [7:0] $end
$var wire 3 ," INADDRESS [2:0] $end
$var wire 8 -" OUT1 [7:0] $end
$var wire 3 ." OUT1ADDRESS [2:0] $end
$var wire 8 /" OUT2 [7:0] $end
$var wire 3 0" OUT2ADDRESS [2:0] $end
$var wire 1 0 RESET $end
$var wire 1 1" WRITE $end
$var integer 32 2" i [31:0] $end
$upscope $end
$scope module MyTargetAddress $end
$var wire 8 3" OFFSET [7:0] $end
$var wire 32 4" PC [31:0] $end
$var wire 22 5" extend_bits [21:0] $end
$var wire 32 6" TARGET_ADDR [31:0] $end
$upscope $end
$scope module MyTwosComp $end
$var wire 8 7" OPERAND [7:0] $end
$var wire 8 8" RESULT [7:0] $end
$upscope $end
$scope module StallMux $end
$var wire 32 9" IN1 [31:0] $end
$var wire 32 :" IN2 [31:0] $end
$var wire 1 + SELECT $end
$var reg 32 ;" OUT [31:0] $end
$upscope $end
$scope module TwosCompMux $end
$var wire 8 <" IN1 [7:0] $end
$var wire 8 =" IN2 [7:0] $end
$var wire 1 h SELECT $end
$var reg 8 >" OUT [7:0] $end
$upscope $end
$upscope $end
$upscope $end
$enddefinitions $end
#0
$dumpvars
bx >"
bx ="
bx <"
bx ;"
bx :"
bx 9"
bx 8"
bx 7"
bx 6"
bx 5"
bx 4"
bx 3"
bx 2"
x1"
bx 0"
bx /"
bx ."
bx -"
bx ,"
bx +"
bx *"
bx )"
bx ("
bx '"
bx &"
bx %"
bx $"
bx #"
bx ""
bx !"
bx ~
bx }
bx |
bx {
bx z
bx y
bx x
bx w
bx v
bx u
bx t
bx s
bx r
bx q
bx p
bx o
bx n
bx m
bx l
bx k
xj
xi
xh
bx g
bx f
xe
xd
xc
bx b
bx a
x`
bx _
bx ^
bx ]
bx \
bx [
bx Z
bx Y
bx X
bx W
bx V
bx U
bx T
bx S
xR
bx Q
bx P
bx O
bx N
bx M
b100000000 L
0K
bx J
0I
bx H
bx G
b111 F
xE
xD
0C
b0 B
xA
b0 @
x?
x>
bx =
bx <
x;
bx :
bx0000000 9
bx 8
bx0000000 7
bx 6
bx 5
bx 4
bx 3
bx 2
bx 1
10
0/
bx .
bx -
bx ,
0+
0*
bx )
0(
bx '
bx &
0%
0$
bx #
0"
bx !
$end
#40
b111 F
1/
#50
b1000 2"
b0 -
b0 g
b0 )"
b0 :"
00
#60
b100 ;"
b100 \
b100 o
b100 *"
b100 4"
b100 9"
#70
b101 ]
b101 s
b101 t
b101 |
b101 !"
b101 $"
b101 &"
b101 Z
b101 0"
b0 [
b0 ."
b100 S
b100 ,"
b0 5"
b0 f
b101 _
b101 q
b100 ^
b100 3"
b1000000000000000101 .
b1000000000000000101 N
#80
0R
b100 O
b100 p
0`
b101 W
b101 m
b101 +"
11"
b101 ,
b101 3
b101 M
b101 a
b101 l
b101 {
b0x0x y
b0x0x ""
bx1x1 v
bx1x1 '"
b101 w
b101 %"
0i
1j
0c
0e
b0 b
b0 u
1d
0h
0/
#90
0?
b0 U
b0 r
b0 >"
b1 5
b0 4
b1 6
b0 X
b0 /"
b0 7"
b0 <"
b0 '
b0 2
b0 Q
b0 Y
b0 x
b0 ~
b0 #"
b0 ("
b0 -"
b10100 V
b10100 n
b10100 6"
#100
b0 T
b0 8"
b0 ="
b101 v
b101 '"
b0 y
b0 ""
#110
b101 z
b101 }
#120
1/
#130
b100 -
b100 g
b100 )"
b100 :"
#140
b1000 p
b1000 O
b1000 ;"
b1000 \
b1000 o
b1000 *"
b1000 4"
b1000 9"
#150
b1 ]
b1 s
b1 t
b1 |
b1 !"
b1 $"
b1 &"
b1 Z
b1 0"
b100 [
b100 ."
b0 S
b0 ,"
b1011 f
b1 _
b1 q
b0 ^
b0 3"
b1011000000000000010000000001 .
b1011000000000000010000000001 N
#160
b1 W
b1 m
b1 +"
b0xx00 O
b100 ;"
b1 ,
b1 3
b1 M
b1 a
b1 l
b1 {
1+
01"
b1 v
b1 '"
b1 w
b1 %"
1(
0j
0/
#170
b0 6
1E
0A
b1 z
b1 }
b101 '
b101 2
b101 Q
b101 Y
b101 x
b101 ~
b101 #"
b101 ("
b101 -"
b1000 V
b1000 n
b1000 6"
#180
0?
0;
0D
b101 v
b101 '"
b1 y
b1 ""
#189
1I
1%
b1 @
b0 &
b0 <
b0 G
1$
0>
#190
b110 z
b110 }
#200
1C
b1 B
1/
#240
0/
#280
1/
#320
0/
#360
1/
#400
0/
#440
1/
#480
0/
#520
1/
#560
0/
#600
1/
bx00000000 #
bx00000000 1
bx00000000 J
#640
0/
#680
1/
#720
0/
#760
1/
#800
0/
#840
1/
#880
0/
#920
1/
#960
0/
#1000
1/
bx0000000000000000 #
bx0000000000000000 1
bx0000000000000000 J
#1040
0/
#1080
1/
#1120
0/
#1160
1/
#1200
0/
#1240
1/
#1280
0/
#1320
1/
#1360
0/
#1400
1/
bx000000000000000000000000 #
bx000000000000000000000000 1
bx000000000000000000000000 J
#1440
0/
#1480
1/
#1520
0/
#1560
1/
#1600
0/
#1640
1/
#1680
0/
#1720
1/
#1760
0/
#1800
0(
b1000 O
b1000 ;"
0C
0+
bx &
bx <
bx G
0$
b0 B
b0 @
1/
0I
0%
b0 #
b0 1
b0 J
#1810
bx0000001 9
#1820
0?
1D
b0 8
b0 )
b0 :
b0 P
b0 k
#1829
1>
#1840
0/
#1880
1/
#1890
b1000 -
b1000 g
b1000 )"
b1000 :"
bx0000001 7
0E
#1900
b1100 p
b1100 O
b1100 ;"
b101 )
b101 :
b101 P
b101 k
b1100 \
b1100 o
b1100 *"
b1100 4"
b1100 9"
#1910
b1010 ]
b1010 s
b1010 t
b1010 |
b1010 !"
b1010 $"
b1010 &"
b10 Z
b10 0"
b0 [
b0 ."
b101 S
b101 ,"
b0 f
b1010 _
b1010 q
b101 ^
b101 3"
b1010000000000001010 .
b1010000000000001010 N
#1920
b1010 W
b1010 m
b1010 +"
b1010 ,
b1010 3
b1010 M
b1010 a
b1010 l
b1010 {
11"
b0 y
b0 ""
b1111 v
b1111 '"
b1010 w
b1010 %"
1j
0/
#1930
b10 5
b10 6
b1111 z
b1111 }
b0 '
b0 2
b0 Q
b0 Y
b0 x
b0 ~
b0 #"
b0 ("
b0 -"
b100000 V
b100000 n
b100000 6"
#1940
bx )
bx :
bx P
bx k
b1010 v
b1010 '"
#1950
b1010 z
b1010 }
#1960
1/
#1970
b1100 -
b1100 g
b1100 )"
b1100 :"
#1980
b10000 p
b10000 O
b10000 ;"
b10000 \
b10000 o
b10000 *"
b10000 4"
b10000 9"
#1990
b100000 ]
b100000 s
b100000 t
b100000 |
b100000 !"
b100000 $"
b100000 &"
b0 Z
b0 0"
b110 S
b110 ,"
b100000 _
b100000 q
b110 ^
b110 3"
b1100000000000100000 .
b1100000000000100000 N
#2000
b100000 W
b100000 m
b100000 +"
b100000 ,
b100000 3
b100000 M
b100000 a
b100000 l
b100000 {
b100000 v
b100000 '"
b100000 w
b100000 %"
0/
#2010
b0 5
b1 4
b0 6
b100000 z
b100000 }
b101000 V
b101000 n
b101000 6"
#2019
1I
1%
b1000 &
b1000 <
b1000 G
1$
0>
#2020
b0 )
b0 :
b0 P
b0 k
#2040
1/
#2050
b10000 -
b10000 g
b10000 )"
b10000 :"
#2060
b10100 p
b10100 O
b10100 ;"
b10100 \
b10100 o
b10100 *"
b10100 4"
b10100 9"
#2070
b101 [
b101 ."
b0 S
b0 ,"
b1011 f
b0 ^
b0 3"
b1011000000000000010100100000 .
b1011000000000000010100100000 N
#2080
b10x00 O
b10000 ;"
b1 @
1+
01"
1(
0j
0/
#2090
1E
b1010 '
b1010 2
b1010 Q
b1010 Y
b1010 x
b1010 ~
b1010 #"
b1010 ("
b1010 -"
b10100 V
b10100 n
b10100 6"
#2100
b10 @
0?
1;
b101010 v
b101010 '"
#2109
0I
b10100000000 !
b10100000000 =
b10100000000 H
b0 &
b0 <
b0 G
1"
#2110
b101010 z
b101010 }
#2120
1K
0$
b10 B
1/
#2160
0/
#2200
1/
#2240
0/
#2280
1/
#2320
0/
#2360
1/
#2400
0/
#2440
1/
#2480
0/
#2520
1/
#2560
0/
#2600
1/
#2640
0/
#2680
1/
#2720
0/
#2760
1/
#2800
0/
#2840
1/
#2880
0/
#2920
1/
#2960
0/
#3000
1/
#3040
0/
#3080
1/
#3120
0/
#3160
1/
#3200
0/
#3240
1/
#3280
0/
#3320
1/
#3360
0/
#3400
1/
#3440
0/
#3480
1/
#3520
0/
#3560
1/
#3600
0/
#3640
0K
1I
1C
bx !
bx =
bx H
b1000 &
b1000 <
b1000 G
0"
1$
b1 B
b1 @
1/
1%
#3680
0/
#3720
1/
#3760
0/
#3800
1/
#3840
0/
#3880
1/
#3920
0/
#3960
1/
#4000
0/
#4040
1/
#4080
0/
#4120
1/
#4160
0/
#4200
1/
#4240
0/
#4280
1/
#4320
0/
#4360
1/
#4400
0/
#4440
1/
#4480
0/
#4520
1/
#4560
0/
#4600
1/
#4640
0/
#4680
1/
#4720
0/
#4760
1/
#4800
0/
#4840
1/
#4880
0/
#4920
1/
#4960
0/
#5000
1/
#5040
0/
#5080
1/
#5120
0/
#5160
1/
#5200
0/
#5240
0(
b10100 O
b10100 ;"
0I
0C
0+
bx &
bx <
bx G
0$
b0 B
b0 @
1/
0%
#5250
bx0000000 7
#5260
0?
0;
b1 8
#5269
1>
#5280
0/
#5320
1/
#5330
bx0000001 7
0E
b10100 -
b10100 g
b10100 )"
b10100 :"
#5340
b11000 p
b11000 O
b11000 ;"
b1010 )
b1010 :
b1010 P
b1010 k
b11000 \
b11000 o
b11000 *"
b11000 4"
b11000 9"
#5350
b0 [
b0 ."
b110 S
b110 ,"
b0 f
b110 ^
b110 3"
b1100000000000100000 .
b1100000000000100000 N
#5360
11"
1j
0/
#5370
b0 '
b0 2
b0 Q
b0 Y
b0 x
b0 ~
b0 #"
b0 ("
b0 -"
b110000 V
b110000 n
b110000 6"
#5380
b100000 v
b100000 '"
#5390
b100000 z
b100000 }
#5400
1/
#5410
b11000 -
b11000 g
b11000 )"
b11000 :"
#5420
b11100 p
b11100 O
b11100 ;"
b11100 \
b11100 o
b11100 *"
b11100 4"
b11100 9"
#5430
b1 ]
b1 s
b1 t
b1 |
b1 !"
b1 $"
b1 &"
b1 Z
b1 0"
b0 S
b0 ,"
b1001 f
b1 _
b1 q
b0 ^
b0 3"
b1001000000000000100000000001 .
b1001000000000000100000000001 N
#5440
0R
01"
b11x00 O
b11000 ;"
b1 ,
b1 3
b1 M
b1 a
b1 l
b1 {
b1010 W
b1010 m
b1010 +"
1+
b1 v
b1 '"
b1 w
b1 %"
1i
1*
0/
#5450
b1 5
b0 4
1A
b1 z
b1 }
b11100 V
b11100 n
b11100 6"
#5459
1I
1%
b1 @
b0 &
b0 <
b0 G
1$
0>
#5460
b0 W
b0 m
b0 +"
b10 @
b0 )
b0 :
b0 P
b0 k
0?
1;
#5469
0I
b1010 !
b1010 =
b1010 H
b1000 &
b1000 <
b1000 G
1"
#5480
1K
0$
b10 B
1/
#5520
0/
#5560
1/
#5600
0/
#5640
1/
#5680
0/
#5720
1/
#5760
0/
#5800
1/
#5840
0/
#5880
1/
#5920
0/
#5960
1/
#6000
0/
#6040
1/
b0xxxxxxxx00000000 #
b0xxxxxxxx00000000 1
b0xxxxxxxx00000000 J
#6080
0/
#6120
1/
#6160
0/
#6200
1/
#6240
0/
#6280
1/
#6320
0/
#6360
1/
#6400
0/
#6440
1/
b0xxxxxxxxxxxxxxxx00000000 #
b0xxxxxxxxxxxxxxxx00000000 1
b0xxxxxxxxxxxxxxxx00000000 J
#6480
0/
#6520
1/
#6560
0/
#6600
1/
#6640
0/
#6680
1/
#6720
0/
#6760
1/
#6800
0/
#6840
0K
1I
1C
bx !
bx =
bx H
b0 &
b0 <
b0 G
0"
1$
b1 B
b1 @
1/
1%
bx00000000 #
bx00000000 1
bx00000000 J
#6880
0/
#6920
1/
#6960
0/
#7000
1/
#7040
0/
#7080
1/
#7120
0/
#7160
1/
#7200
0/
#7240
1/
#7280
0/
#7320
1/
#7360
0/
#7400
1/
#7440
0/
#7480
1/
#7520
0/
#7560
1/
#7600
0/
#7640
1/
#7680
0/
#7720
1/
#7760
0/
#7800
1/
#7840
0/
#7880
1/
#7920
0/
#7960
1/
#8000
0/
#8040
1/
#8080
0/
#8120
1/
#8160
0/
#8200
1/
#8240
0/
#8280
1/
#8320
0/
#8360
1/
#8400
0/
#8440
0*
11"
b11100 O
b11100 ;"
0I
0C
0+
bx &
bx <
bx G
0$
b0 B
b0 @
1/
0%
#8450
bx0000000 7
#8460
bx W
bx m
bx +"
0?
0;
b0 8
bx )
bx :
bx P
bx k
#8469
0A
1>
#8480
0/
#8520
1/
#8530
b11100 -
b11100 g
b11100 )"
b11100 :"
#8540
b100000 p
b100000 O
b100000 ;"
b100000 \
b100000 o
b100000 *"
b100000 4"
b100000 9"
#8550
b10100 ]
b10100 s
b10100 t
b10100 |
b10100 !"
b10100 $"
b10100 &"
b100 Z
b100 0"
b111 S
b111 ,"
b0 f
b10100 _
b10100 q
b111 ^
b111 3"
b1110000000000010100 .
b1110000000000010100 N
bx '
bx 2
bx Q
bx Y
bx x
bx ~
bx #"
bx ("
bx -"
#8560
b10100 W
b10100 m
b10100 +"
b10100 ,
b10100 3
b10100 M
b10100 a
b10100 l
b10100 {
b10100 w
b10100 %"
0i
bx1x1xx v
bx1x1xx '"
b0x0x00 y
b0x0x00 ""
0/
#8570
b101 U
b101 r
b101 >"
b0 5
b101 6
b101 X
b101 /"
b101 7"
b101 <"
b111100 V
b111100 n
b111100 6"
bx z
bx }
#8580
b11111011 T
b11111011 8"
b11111011 ="
#8600
1/
#8610
b100000 -
b100000 g
b100000 )"
b100000 :"
#8620
b100100 p
b100100 O
b100100 ;"
b100100 \
b100100 o
b100100 *"
b100100 4"
b100100 9"
#8630
b100000 ]
b100000 s
b100000 t
b100000 |
b100000 !"
b100000 $"
b100000 &"
b0 Z
b0 0"
b1 [
b1 ."
b0 S
b0 ,"
b1001 f
b100000 _
b100000 q
b0 ^
b0 3"
b1001000000000000100100100000 .
b1001000000000000100100100000 N
#8640
01"
b100x00 O
b100000 ;"
b100000 ,
b100000 3
b100000 M
b100000 a
b100000 l
b100000 {
bx W
bx m
bx +"
1+
b0x00000 y
b0x00000 ""
bx1xxxxx v
bx1xxxxx '"
b100000 w
b100000 %"
1i
1*
0/
#8650
bx U
bx r
bx >"
b1 4
b0 6
1A
bx X
bx /"
bx 7"
bx <"
b0 '
b0 2
b0 Q
b0 Y
b0 x
b0 ~
b0 #"
b0 ("
b0 -"
b100100 V
b100100 n
b100100 6"
#8659
1I
1%
b1 @
b1000 &
b1000 <
b1000 G
1$
0>
#8660
b0 W
b0 m
b0 +"
b0 )
b0 :
b0 P
b0 k
0?
bx T
bx 8"
bx ="
b100000 v
b100000 '"
b0 y
b0 ""
#8670
b100000 z
b100000 }
#8680
1C
b1 B
1/
#8720
0/
#8760
1/
#8800
0/
#8840
1/
bx00001010 #
bx00001010 1
bx00001010 J
#8880
0/
#8920
1/
#8960
0/
#9000
1/
#9040
0/
#9080
1/
#9120
0/
#9160
1/
#9200
0/
#9240
1/
#9280
0/
#9320
1/
#9360
0/
#9400
1/
#9440
0/
#9480
1/
#9520
0/
#9560
1/
#9600
0/
#9640
1/
#9680
0/
#9720
1/
#9760
0/
#9800
1/
#9840
0/
#9880
1/
#9920
0/
#9960
1/
#10000
0/
#10040
0*
11"
b100100 O
b100100 ;"
0C
0+
bx &
bx <
bx G
0$
b0 B
b0 @
1/
0I
0%
#10060
b1010 W
b1010 m
b1010 +"
b1010 )
b1010 :
b1010 P
b1010 k
#10080
0/
#10120
1/
#10130
b100100 -
b100100 g
b100100 )"
b100100 :"
#10140
b101000 p
b101000 O
b101000 ;"
b101000 \
b101000 o
b101000 *"
b101000 4"
b101000 9"
#10150
b110 Z
b110 0"
b0 [
b0 ."
b101 S
b101 ,"
b110 ]
b110 s
b110 t
b110 |
b110 !"
b110 $"
b110 &"
b0 f
b110 _
b110 q
b101 ^
b101 3"
b1010 U
b1010 r
b1010 >"
b1010000000000000110 .
b1010000000000000110 N
b1010 X
b1010 /"
b1010 7"
b1010 <"
#10160
0R
b110 ,
b110 3
b110 M
b110 a
b110 l
b110 {
b110 W
b110 m
b110 +"
b110 v
b110 '"
b110 w
b110 %"
0i
b11110110 T
b11110110 8"
b11110110 ="
0/
#10170
b100000 U
b100000 r
b100000 >"
b10 5
b0 4
b1 6
b100000 X
b100000 /"
b100000 7"
b100000 <"
b1010 '
b1010 2
b1010 Q
b1010 Y
b1010 x
b1010 ~
b1010 #"
b1010 ("
b1010 -"
b110 z
b110 }
b111100 V
b111100 n
b111100 6"
#10179
0A
1>
#10180
bx )
bx :
bx P
bx k
0?
0D
bx 8
b11100000 T
b11100000 8"
b11100000 ="
b1110 v
b1110 '"
b10 y
b10 ""
#10189
1I
1%
b1 &
b1 <
b1 G
1$
0>
#10190
b10000 z
b10000 }
#10200
1/
#10210
b101000 -
b101000 g
b101000 )"
b101000 :"
#10220
b101100 p
b101100 O
b101100 ;"
b101100 \
b101100 o
b101100 *"
b101100 4"
b101100 9"
#10230
b100000 ]
b100000 s
b100000 t
b100000 |
b100000 !"
b100000 $"
b100000 &"
b0 Z
b0 0"
b111 [
b111 ."
b0 S
b0 ,"
b1011 f
b100000 _
b100000 q
b0 ^
b0 3"
b1011000000000000011100100000 .
b1011000000000000011100100000 N
#10240
b100000 W
b100000 m
b100000 +"
b101x00 O
b101000 ;"
b100000 ,
b100000 3
b100000 M
b100000 a
b100000 l
b100000 {
b1 @
1+
01"
b0 y
b0 ""
b101010 v
b101010 '"
b100000 w
b100000 %"
1(
0j
0/
#10250
b1010 U
b1010 r
b1010 >"
b0 5
b1 4
b0 6
1E
b101010 z
b101010 }
b1010 X
b1010 /"
b1010 7"
b1010 <"
b10100 '
b10100 2
b10100 Q
b10100 Y
b10100 x
b10100 ~
b10100 #"
b10100 ("
b10100 -"
b101100 V
b101100 n
b101100 6"
#10259
b1000 &
b1000 <
b1000 G
#10260
b1010 )
b1010 :
b1010 P
b1010 k
0?
1D
b1 8
b11110110 T
b11110110 8"
b11110110 ="
b110100 v
b110100 '"
#10269
0(
b101100 O
b101100 ;"
b0 @
0+
1>
#10270
b110100 z
b110100 }
#10280
1/
#10290
bx0000001 7
0E
b101100 -
b101100 g
b101100 )"
b101100 :"
#10300
b110000 p
b110000 O
b110000 ;"
b10100 )
b10100 :
b10100 P
b10100 k
b110000 \
b110000 o
b110000 *"
b110000 4"
b110000 9"
#10310
b100 [
b100 ."
b1001 f
b1001000000000000010000100000 .
b1001000000000000010000100000 N
#10320
b1xxx00 O
b101100 ;"
b10100 W
b10100 m
b10100 +"
1+
01"
1i
1*
1j
b110000 V
b110000 n
b110000 6"
0/
#10330
1A
b101 '
b101 2
b101 Q
b101 Y
b101 x
b101 ~
b101 #"
b101 ("
b101 -"
#10340
0?
1;
b100101 v
b100101 '"
#10349
0*
11"
b110000 O
b110000 ;"
0A
0+
#10350
b100101 z
b100101 }
#10360
1/
#10370
b110000 -
b110000 g
b110000 )"
b110000 :"
#10380
b110100 p
b110100 O
b110100 ;"
b110100 \
b110100 o
b110100 *"
b110100 4"
b110100 9"
#10390
bx ]
bx s
bx t
bx |
bx !"
bx $"
bx &"
bx Z
bx 0"
bx [
bx ."
bx S
bx ,"
bx 5"
b10100 U
b10100 r
b10100 >"
bx f
bx _
bx q
bx ^
bx 3"
b10100 X
b10100 /"
b10100 7"
b10100 <"
bx .
bx N
#10400
b110000 ;"
b110000 O
b110000 p
1+
01"
x`
b11101100 U
b11101100 r
b11101100 >"
b0x0x y
b0x0x ""
bx1x1 v
bx1x1 '"
bx w
bx %"
b11101100 T
b11101100 8"
b11101100 ="
xi
x(
x*
xj
xc
xe
bx b
bx u
xd
xh
0/
#10410
bx O
bx p
xE
xA
bx z
bx }
bx X
bx /"
bx 7"
bx <"
bx '
bx 2
bx Q
bx Y
bx x
bx ~
bx #"
bx ("
bx -"
bx V
bx n
bx 6"
#10420
bx U
bx r
bx >"
bx T
bx 8"
bx ="
bx v
bx '"
bx y
bx ""
#10440
1/
#10480
0/
#10520
1/
#10560
0/
#10600
1/
bx00000000 #
bx00000000 1
bx00000000 J
#10640
0/
#10680
1/
#10720
0/
#10760
1/
#10800
0/
#10840
1/
#10880
0/
#10920
1/
#10960
0/
#11000
1/
#11040
0/
#11080
1/
#11120
0/
#11160
1/
#11200
0/
#11240
1/
#11280
0/
#11320
1/
#11360
0/
#11400
1/
#11440
0/
#11480
1/
#11520
0/
#11560
1/
#11600
0/
#11640
1/
#11680
0/
#11720
1/
#11760
0/
#11800
1/
0I
0%
