PART2/Part3/cpu_wavedata.vcd
$date
	Mon Jul  3 02:14:12 2023
$end
$version
	Icarus Verilog
$end
$timescale
	100ps
$end
$scope module cpu_tb $end
$var wire 32 ! PC [31:0] $end
$var wire 32 " INSTRUCTION [31:0] $end
$var wire 1 # INSTRBUSYWAIT $end
$var wire 1 $ IMREAD $end
$var wire 128 % IMINSTR [127:0] $end
$var wire 1 & IMBUSYWAIT $end
$var wire 6 ' IMADDRESS [5:0] $end
$var wire 32 ( DM_WRITEDATA [31:0] $end
$var wire 1 ) DM_WRITE $end
$var wire 32 * DM_READDATA [31:0] $end
$var wire 1 + DM_READ $end
$var wire 1 , DM_BUSYWAIT $end
$var wire 6 - DM_ADDRESS [5:0] $end
$var wire 8 . CPU_WRITEDATA [7:0] $end
$var wire 1 / CPU_WRITE $end
$var wire 8 0 CPU_READDATA [7:0] $end
$var wire 1 1 CPU_READ $end
$var wire 1 2 CPU_BUSYWAIT $end
$var wire 8 3 CPU_ADDRESS [7:0] $end
$var reg 1 4 CLK $end
$var reg 1 5 RESET $end
$scope module icache $end
$var wire 10 6 address [9:0] $end
$var wire 1 4 clock $end
$var wire 1 7 hit $end
$var wire 128 8 instr_block [127:0] $end
$var wire 1 5 reset $end
$var wire 1 9 valid $end
$var wire 1 : tagMatch $end
$var wire 3 ; tag [2:0] $end
$var wire 32 < readinst [31:0] $end
$var wire 2 = offset [1:0] $end
$var wire 128 > mem_inst [127:0] $end
$var wire 1 & mem_busywait $end
$var wire 3 ? index [2:0] $end
$var wire 3 @ cache_tag [2:0] $end
$var reg 1 # busywait $end
$var reg 32 A loaded_instr [31:0] $end
$var reg 6 B mem_address [5:0] $end
$var reg 1 $ mem_read $end
$var reg 3 C next_state [2:0] $end
$var reg 3 D state [2:0] $end
$var integer 32 E i [31:0] $end
$upscope $end
$scope module instruction $end
$var wire 6 F address [5:0] $end
$var wire 1 4 clock $end
$var wire 1 $ read $end
$var reg 1 & busywait $end
$var reg 1 G readaccess $end
$var reg 128 H readinst [127:0] $end
$upscope $end
$scope module my_datacache $end
$var wire 3 I cache_tag [2:0] $end
$var wire 1 4 clock $end
$var wire 1 J dirty $end
$var wire 1 K hit $end
$var wire 1 5 reset $end
$var wire 1 / write $end
$var wire 3 L tag [2:0] $end
$var wire 1 1 read $end
$var wire 2 M offset [1:0] $end
$var wire 32 N mem_readdata [31:0] $end
$var wire 1 , mem_busywait $end
$var wire 3 O index [2:0] $end
$var wire 8 P cpu_writeData [7:0] $end
$var wire 8 Q address [7:0] $end
$var reg 1 2 busywait $end
$var reg 1 R cache_write $end
$var reg 8 S cpu_readData [7:0] $end
$var reg 6 T mem_address [5:0] $end
$var reg 1 + mem_read $end
$var reg 1 ) mem_write $end
$var reg 32 U mem_writedata [31:0] $end
$var reg 3 V next_state [2:0] $end
$var reg 3 W state [2:0] $end
$var reg 1 X tagmatch $end
$var integer 32 Y i [31:0] $end
$upscope $end
$scope module my_datamem $end
$var wire 6 Z address [5:0] $end
$var wire 1 4 clock $end
$var wire 1 + read $end
$var wire 1 5 reset $end
$var wire 1 ) write $end
$var wire 32 [ writedata [31:0] $end
$var reg 1 , busywait $end
$var reg 1 \ readaccess $end
$var reg 32 ] readdata [31:0] $end
$var reg 1 ^ writeaccess $end
$var integer 32 _ i [31:0] $end
$upscope $end
$scope module mycpu $end
$var wire 8 ` ADDRESS [7:0] $end
$var wire 1 2 BUSYWAIT $end
$var wire 1 4 CLK $end
$var wire 1 # INSTRBUSYWAIT $end
$var wire 32 a INSTRUCTION [31:0] $end
$var wire 8 b READDATA [7:0] $end
$var wire 1 5 RESET $end
$var wire 8 c WRITEDATA [7:0] $end
$var wire 8 d registerOp [7:0] $end
$var wire 32 e newPC [31:0] $end
$var wire 8 f negatedOp [7:0] $end
$var wire 1 g flowSelect $end
$var wire 1 h ZERO $end
$var wire 3 i WRITEREG [2:0] $end
$var wire 32 j TARGET [31:0] $end
$var wire 8 k REGOUT2 [7:0] $end
$var wire 8 l REGOUT1 [7:0] $end
$var wire 8 m REGIN [7:0] $end
$var wire 3 n READREG2 [2:0] $end
$var wire 3 o READREG1 [2:0] $end
$var wire 32 p PCplus4 [31:0] $end
$var wire 32 q PCout [31:0] $end
$var wire 8 r OPERAND2 [7:0] $end
$var wire 8 s OFFSET [7:0] $end
$var wire 8 t IMMEDIATE [7:0] $end
$var wire 8 u ALURESULT [7:0] $end
$var reg 3 v ALUOP [2:0] $end
$var reg 1 w BRANCH $end
$var reg 1 x JUMP $end
$var reg 8 y OPCODE [7:0] $end
$var reg 32 z PC [31:0] $end
$var reg 1 1 READ $end
$var reg 1 / WRITE $end
$var reg 1 { WRITEENABLE $end
$var reg 1 | dataSelect $end
$var reg 1 } immSelect $end
$var reg 1 ~ signSelect $end
$scope module busywaitMUX $end
$var wire 32 !" IN2 [31:0] $end
$var wire 1 "" SELECT $end
$var wire 32 #" IN1 [31:0] $end
$var reg 32 $" OUT [31:0] $end
$upscope $end
$scope module datamux $end
$var wire 8 %" IN2 [7:0] $end
$var wire 1 | SELECT $end
$var wire 8 &" IN1 [7:0] $end
$var reg 8 '" OUT [7:0] $end
$upscope $end
$scope module flowctrlmux $end
$var wire 1 g SELECT $end
$var wire 32 (" IN2 [31:0] $end
$var wire 32 )" IN1 [31:0] $end
$var reg 32 *" OUT [31:0] $end
$upscope $end
$scope module immediateMUX $end
$var wire 8 +" IN2 [7:0] $end
$var wire 1 } SELECT $end
$var wire 8 ," IN1 [7:0] $end
$var reg 8 -" OUT [7:0] $end
$upscope $end
$scope module my_alu $end
$var wire 8 ." DATA2 [7:0] $end
$var wire 3 /" SELECT [2:0] $end
$var wire 1 h ZERO $end
$var wire 8 0" orOut [7:0] $end
$var wire 8 1" forwardOut [7:0] $end
$var wire 8 2" andOut [7:0] $end
$var wire 8 3" addOut [7:0] $end
$var wire 8 4" DATA1 [7:0] $end
$var reg 8 5" RESULT [7:0] $end
$scope module addUnit $end
$var wire 8 6" DATA2 [7:0] $end
$var wire 8 7" RESULT [7:0] $end
$var wire 8 8" DATA1 [7:0] $end
$upscope $end
$scope module andUnit $end
$var wire 8 9" DATA2 [7:0] $end
$var wire 8 :" RESULT [7:0] $end
$var wire 8 ;" DATA1 [7:0] $end
$upscope $end
$scope module forwardUnit $end
$var wire 8 <" DATA [7:0] $end
$var wire 8 =" RESULT [7:0] $end
$upscope $end
$scope module orUnit $end
$var wire 8 >" DATA2 [7:0] $end
$var wire 8 ?" RESULT [7:0] $end
$var wire 8 @" DATA1 [7:0] $end
$upscope $end
$upscope $end
$scope module my_flowControl $end
$var wire 1 w BRANCH $end
$var wire 1 x JUMP $end
$var wire 1 g OUT $end
$var wire 1 h ZERO $end
$upscope $end
$scope module my_jumpbranchAdder $end
$var wire 8 A" OFFSET [7:0] $end
$var wire 22 B" signBits [21:0] $end
$var wire 32 C" TARGET [31:0] $end
$var wire 32 D" PC [31:0] $end
$upscope $end
$scope module my_pcAdder $end
$var wire 32 E" PC [31:0] $end
$var wire 32 F" PCplus4 [31:0] $end
$upscope $end
$scope module my_reg $end
$var wire 1 4 CLK $end
$var wire 8 G" IN [7:0] $end
$var wire 3 H" INADDRESS [2:0] $end
$var wire 8 I" OUT1 [7:0] $end
$var wire 3 J" OUT1ADDRESS [2:0] $end
$var wire 8 K" OUT2 [7:0] $end
$var wire 3 L" OUT2ADDRESS [2:0] $end
$var wire 1 5 RESET $end
$var wire 1 { WRITE $end
$var integer 32 M" i [31:0] $end
$upscope $end
$scope module my_twosComp $end
$var wire 8 N" IN [7:0] $end
$var wire 8 O" OUT [7:0] $end
$upscope $end
$scope module negationMUX $end
$var wire 8 P" IN1 [7:0] $end
$var wire 8 Q" IN2 [7:0] $end
$var wire 1 ~ SELECT $end
$var reg 8 R" OUT [7:0] $end
$upscope $end
$upscope $end
$upscope $end
$enddefinitions $end
#0
$dumpvars
bx R"
bx Q"
bx P"
bx O"
bx N"
bx M"
bx L"
bx K"
bx J"
bx I"
bx H"
bx G"
bx F"
bx E"
bx D"
bx C"
bx B"
bx A"
bx @"
bx ?"
bx >"
bx ="
bx <"
bx ;"
bx :"
bx 9"
bx 8"
bx 7"
bx 6"
bx 5"
bx 4"
bx 3"
bx 2"
bx 1"
bx 0"
bx /"
bx ."
bx -"
bx ,"
bx +"
bx *"
bx )"
bx ("
bx '"
bx &"
bx %"
bx $"
bx #"
x""
bx !"
x~
x}
x|
x{
bx z
bx y
xx
xw
bx v
bx u
bx t
bx s
bx r
bx q
bx p
bx o
bx n
bx m
bx l
bx k
bx j
bx i
xh
xg
bx f
bx e
bx d
bx c
bx b
bx a
bx `
b100000000 _
0^
bx ]
0\
b0xxxxxxxx [
bx Z
b111 Y
xX
b0 W
b0 V
b0xxxxxxxx U
bx T
bx S
xR
bx Q
bx P
bx O
bx N
bx M
bx L
xK
xJ
bz I
bx H
0G
bx F
b1000 E
b0 D
b0 C
bx B
bx A
bx @
bx ?
bx >
bx =
bx <
bx ;
x:
x9
bx 8
x7
bx 6
15
04
bx 3
x2
x1
bx 0
x/
bx .
bx -
0,
0+
bx *
0)
b0xxxxxxxx (
bx '
0&
bx %
0$
x#
bx "
bx !
$end
#10
b0x @
#40
b1000 E
b111 Y
14
#50
b0 e
b0 $"
1""
b0 =
b0 ?
b0 ;
1#
b0 6
b1000 M"
b0 !
b0 z
b0 !"
b0 E"
05
#60
b1 C
07
b100 q
b100 #"
b100 *"
09
b100 p
b100 )"
b100 D"
b100 F"
#80
04
#120
1G
1&
b0 '
b0 B
b0 F
1$
b1 C
b1 D
14
#160
04
#200
14
#240
04
#280
14
#320
04
#360
14
#400
04
#440
14
#480
04
#520
14
#560
04
#600
14
bx00001001 %
bx00001001 >
bx00001001 H
#640
04
#680
14
#720
04
#760
14
#800
04
#840
14
#880
04
#920
14
#960
04
#1000
14
bx0000000000001001 %
bx0000000000001001 >
bx0000000000001001 H
#1040
04
#1080
14
#1120
04
#1160
14
#1200
04
#1240
14
#1280
04
#1320
14
#1360
04
#1400
14
bx000000000000000000001001 %
bx000000000000000000001001 >
bx000000000000000000001001 H
#1440
04
#1480
14
#1520
04
#1560
14
#1600
04
#1640
14
#1680
04
#1720
14
#1760
04
#1800
14
bx00000000000000000000000000001001 %
bx00000000000000000000000000001001 >
bx00000000000000000000000000001001 H
#1840
04
#1880
14
#1920
04
#1960
14
#2000
04
#2040
14
#2080
04
#2120
14
#2160
04
#2200
14
bx0000000100000000000000000000000000001001 %
bx0000000100000000000000000000000000001001 >
bx0000000100000000000000000000000000001001 H
#2240
04
#2280
14
#2320
04
#2360
14
#2400
04
#2440
14
#2480
04
#2520
14
#2560
04
#2600
14
bx000000000000000100000000000000000000000000001001 %
bx000000000000000100000000000000000000000000001001 >
bx000000000000000100000000000000000000000000001001 H
#2640
04
#2680
14
#2720
04
#2760
14
#2800
04
#2840
14
#2880
04
#2920
14
#2960
04
#3000
14
bx00000001000000000000000100000000000000000000000000001001 %
bx00000001000000000000000100000000000000000000000000001001 >
bx00000001000000000000000100000000000000000000000000001001 H
#3040
04
#3080
14
#3120
04
#3160
14
#3200
04
#3240
14
#3280
04
#3320
14
#3360
04
#3400
14
bx0000000000000001000000000000000100000000000000000000000000001001 %
bx0000000000000001000000000000000100000000000000000000000000001001 >
bx0000000000000001000000000000000100000000000000000000000000001001 H
#3440
04
#3480
14
#3520
04
#3560
14
#3600
04
#3640
14
#3680
04
#3720
14
#3760
04
#3800
14
bx000000010000000000000001000000000000000100000000000000000000000000001001 %
bx000000010000000000000001000000000000000100000000000000000000000000001001 >
bx000000010000000000000001000000000000000100000000000000000000000000001001 H
#3840
04
#3880
14
#3920
04
#3960
14
#4000
04
#4040
14
#4080
04
#4120
14
#4160
04
#4200
14
bx00000000000000010000000000000001000000000000000100000000000000000000000000001001 %
bx00000000000000010000000000000001000000000000000100000000000000000000000000001001 >
bx00000000000000010000000000000001000000000000000100000000000000000000000000001001 H
#4240
04
#4280
14
#4320
04
#4360
14
#4400
04
#4440
14
#4480
04
#4520
14
#4560
04
#4600
14
bx0000000000000000000000010000000000000001000000000000000100000000000000000000000000001001 %
bx0000000000000000000000010000000000000001000000000000000100000000000000000000000000001001 >
bx0000000000000000000000010000000000000001000000000000000100000000000000000000000000001001 H
#4640
04
#4680
14
#4720
04
#4760
14
#4800
04
#4840
14
#4880
04
#4920
14
#4960
04
#5000
14
bx000010100000000000000000000000010000000000000001000000000000000100000000000000000000000000001001 %
bx000010100000000000000000000000010000000000000001000000000000000100000000000000000000000000001001 >
bx000010100000000000000000000000010000000000000001000000000000000100000000000000000000000000001001 H
#5040
04
#5080
14
#5120
04
#5160
14
#5200
04
#5240
14
#5280
04
#5320
14
#5360
04
#5400
14
bx00000000000010100000000000000000000000010000000000000001000000000000000100000000000000000000000000001001 %
bx00000000000010100000000000000000000000010000000000000001000000000000000100000000000000000000000000001001 >
bx00000000000010100000000000000000000000010000000000000001000000000000000100000000000000000000000000001001 H
#5440
04
#5480
14
#5520
04
#5560
14
#5600
04
#5640
14
#5680
04
#5720
14
#5760
04
#5800
14
bx0000000100000000000010100000000000000000000000010000000000000001000000000000000100000000000000000000000000001001 %
bx0000000100000000000010100000000000000000000000010000000000000001000000000000000100000000000000000000000000001001 >
bx0000000100000000000010100000000000000000000000010000000000000001000000000000000100000000000000000000000000001001 H
#5840
04
#5880
14
#5920
04
#5960
14
#6000
04
#6040
14
#6080
04
#6120
14
#6160
04
#6200
14
bx000000000000000100000000000010100000000000000000000000010000000000000001000000000000000100000000000000000000000000001001 %
bx000000000000000100000000000010100000000000000000000000010000000000000001000000000000000100000000000000000000000000001001 >
bx000000000000000100000000000010100000000000000000000000010000000000000001000000000000000100000000000000000000000000001001 H
#6240
04
#6280
14
#6320
04
#6360
14
#6400
04
#6440
14
#6480
04
#6520
14
#6560
04
#6600
b0 D
b1 C
14
0G
0&
b1011000000000000000100000000000010100000000000000000000000010000000000000001000000000000000100000000000000000000000000001001 %
b1011000000000000000100000000000010100000000000000000000000010000000000000001000000000000000100000000000000000000000000001001 >
b1011000000000000000100000000000010100000000000000000000000010000000000000001000000000000000100000000000000000000000000001001 H
#6610
bx '
bx B
bx F
0$
#6620
b0 C
x7
b0 @
19
b1011000000000000000100000000000010100000000000000000000000010000000000000001000000000000000100000000000000000000000000001001 8
#6629
17
1:
#6630
b0 o
b0 J"
b1 n
b1 L"
b0 i
b0 H"
b0 B"
b1001 t
b1001 +"
b0 s
b0 A"
b0 y
b1001 "
b1001 <
b1001 a
b1001 A
#6640
b100 e
b100 $"
0g
0""
02
b1001 r
b1001 -"
b1001 ."
b1001 6"
b1001 9"
b1001 <"
b1001 >"
0#
0|
0/
01
1{
0w
0x
0~
1}
b0 v
b0 /"
04
#6650
0h
b1001 m
b1001 '"
b1001 G"
b1001 3
b1001 Q
b1001 `
b1001 u
b1001 &"
b1001 5"
b0 d
b0 ,"
b0 R"
b0x00x 2"
b0x00x :"
bx1xx1 0"
bx1xx1 ?"
b1001 1"
b1001 ="
b0 .
b0 P
b0 c
b0 l
b0 4"
b0 8"
b0 ;"
b0 @"
b0 I"
b0 k
b0 K"
b0 N"
b0 P"
b100 j
b100 ("
b100 C"
#6660
0K
b1 M
b10 O
b0 L
b1001 0"
b1001 ?"
b0 2"
b0 :"
b0 f
b0 O"
b0 Q"
#6669
0X
#6670
0J
b1001 3"
b1001 7"
#6680
14
#6690
1""
b1 =
1#
b100 6
b100 !
b100 z
b100 !"
b100 E"
#6700
b1 r
b1 -"
b1 ."
b1 6"
b1 9"
b1 <"
b1 >"
b1 i
b1 H"
b1 t
b1 +"
b1 s
b1 A"
b10000000000000001 "
b10000000000000001 <
b10000000000000001 a
b1000 q
b1000 #"
b1000 *"
b10000000000000001 A
b1000 p
b1000 )"
b1000 D"
b1000 F"
#6710
b1 m
b1 '"
b1 G"
b1 3
b1 Q
b1 `
b1 u
b1 &"
b1 5"
b1 0"
b1 ?"
b1 1"
b1 ="
b1001 .
b1001 P
b1001 c
b1001 l
b1001 4"
b1001 8"
b1001 ;"
b1001 @"
b1001 I"
#6720
b1000 e
b1000 $"
0""
0#
b0 O
b1001 0"
b1001 ?"
b1 2"
b1 :"
b1100 j
b1100 ("
b1100 C"
04
#6730
b1010 3"
b1010 7"
#6760
14
#6770
1""
b10 =
1#
b1000 6
b1000 !
b1000 z
b1000 !"
b1000 E"
#6780
b0 i
b0 H"
b0 s
b0 A"
b1010 y
b1010000000000000000000000001 "
b1010000000000000000000000001 <
b1010000000000000000000000001 a
b1100 q
b1100 #"
b1100 *"
b1010000000000000000000000001 A
b1100 p
b1100 )"
b1100 D"
b1100 F"
#6790
b1 V
12
b1 d
b1 ,"
b1 R"
1/
0{
0}
b1 k
b1 K"
b1 N"
b1 P"
#6800
0#
b11111111 f
b11111111 O"
b11111111 Q"
04
#6840
1\
1,
bx (
bx U
bx [
b0 -
b0 T
b0 Z
1+
b1 V
b1 W
14
#6880
04
#6920
14
#6960
04
#7000
14
#7040
04
#7080
14
#7120
04
#7160
14
#7200
04
#7240
14
#7280
04
#7320
14
bx00000000 *
bx00000000 N
bx00000000 ]
#7360
04
#7400
14
#7440
04
#7480
14
#7520
04
#7560
14
#7600
04
#7640
14
#7680
04
#7720
14
bx0000000000000000 *
bx0000000000000000 N
bx0000000000000000 ]
#7760
04
#7800
14
#7840
04
#7880
14
#7920
04
#7960
14
#8000
04
#8040
14
#8080
04
#8120
14
bx000000000000000000000000 *
bx000000000000000000000000 N
bx000000000000000000000000 ]
#8160
04
#8200
14
#8240
04
#8280
14
#8320
04
#8360
14
#8400
04
#8440
14
#8480
04
#8520
b0 W
b1 V
14
0\
0,
b0 *
b0 N
b0 ]
#8530
b0 0
b0 S
b0 b
b0 %"
#8539
b1100 e
b1100 $"
0""
0/
b0 V
1R
02
1K
1X
#8560
04
#8600
14
#8610
1""
b11 =
1#
b0xxxxxxxx (
b0xxxxxxxx U
b0xxxxxxxx [
bx -
bx T
bx Z
0+
b1001 0
b1001 S
b1001 b
b1001 %"
b1100 6
b1100 !
b1100 z
b1100 !"
b1100 E"
#8620
b1 o
b1 J"
b0 n
b0 L"
b0 t
b0 +"
b1011 y
b1011000000000000000100000000 "
b1011000000000000000100000000 <
b1011000000000000000100000000 a
b10000 q
b10000 #"
b10000 *"
b1011000000000000000100000000 A
1J
b10000 p
b10000 )"
b10000 D"
b10000 F"
#8630
02
b0 r
b0 -"
b0 ."
b0 6"
b0 9"
b0 <"
b0 >"
0/
1}
#8640
1h
b10000 e
b10000 $"
b0 m
b0 '"
b0 G"
0""
b0 3
b0 Q
b0 `
b0 u
b0 &"
b0 5"
b1001 d
b1001 ,"
b1001 R"
0#
b0 2"
b0 :"
b0 1"
b0 ="
b1 .
b1 P
b1 c
b1 l
b1 4"
b1 8"
b1 ;"
b1 @"
b1 I"
b1001 k
b1001 K"
b1001 N"
b1001 P"
b10000 j
b10000 ("
b10000 C"
04
#8650
b0 0
b0 S
b0 b
b0 %"
b0 M
b1 0"
b1 ?"
b11110111 f
b11110111 O"
b11110111 Q"
#8660
b1 3"
b1 7"
#8680
14
#8690
1""
b0 =
b1 ?
1#
b10000 6
b1 0
b1 S
b1 b
b1 %"
b10000 !
b10000 z
b10000 !"
b10000 E"
#8700
bx o
bx J"
bx r
bx -"
bx ."
bx 6"
bx 9"
bx <"
bx >"
bx n
bx L"
bx i
bx H"
bx B"
bx t
bx +"
bx s
bx A"
bx y
b1 C
bx "
bx <
bx a
07
b10100 q
b10100 #"
b10100 *"
b1001 A
bx 8
b0x @
09
b10100 p
b10100 )"
b10100 D"
b10100 F"
#8709
x:
#8710
xh
bx m
bx '"
bx G"
bx 3
bx Q
bx `
bx u
bx &"
bx 5"
b0x 2"
b0x :"
bx1 0"
bx1 ?"
bx 1"
bx ="
#8720
xK
bx d
bx ,"
bx R"
bx M
bx O
bx L
bx .
bx P
bx c
bx l
bx 4"
bx 8"
bx ;"
bx @"
bx I"
bx 3"
bx 7"
bx k
bx K"
bx N"
bx P"
bx j
bx ("
bx C"
04
#8729
0K
0X
#8730
bx 0"
bx ?"
bx 2"
bx :"
bx f
bx O"
bx Q"
xJ
#8760
1G
1&
b1 '
b1 B
b1 F
1$
b1 C
b1 D
14
#8800
04
#8840
14
#8880
04
#8920
14
#8960
04
#9000
14
#9040
04
#9080
14
#9120
04
#9160
14
#9200
04
#9240
14
b1011000000000000000100000000000010100000000000000000000000010000000000000001000000000000000100000000000000000000000000000001 %
b1011000000000000000100000000000010100000000000000000000000010000000000000001000000000000000100000000000000000000000000000001 >
b1011000000000000000100000000000010100000000000000000000000010000000000000001000000000000000100000000000000000000000000000001 H
#9280
04
#9320
14
#9360
04
#9400
14
#9440
04
#9480
14
#9520
04
#9560
14
#9600
04
#9640
14
#9680
04
#9720
14
#9760
04
#9800
14
#9840
04
#9880
14
#9920
04
#9960
14
#10000
04
#10040
14
b1011000000000000000100000000000010100000000000000000000000010000000000000001000000000000000100000000000000100000000000000001 %
b1011000000000000000100000000000010100000000000000000000000010000000000000001000000000000000100000000000000100000000000000001 >
b1011000000000000000100000000000010100000000000000000000000010000000000000001000000000000000100000000000000100000000000000001 H
#10080
04
#10120
14
#10160
04
#10200
14
#10240
04
#10280
14
#10320
04
#10360
14
#10400
04
#10440
14
b1011000000000000000100000000000010100000000000000000000000010000000000000001000000000000000100001000000000100000000000000001 %
b1011000000000000000100000000000010100000000000000000000000010000000000000001000000000000000100001000000000100000000000000001 >
b1011000000000000000100000000000010100000000000000000000000010000000000000001000000000000000100001000000000100000000000000001 H
#10480
04
#10520
14
#10560
04
#10600
14
#10640
04
#10680
14
#10720
04
#10760
14
#10800
04
#10840
14
#10880
04
#10920
14
#10960
04
#11000
14
#11040
04
#11080
14
#11120
04
#11160
14
#11200
04
#11240
14
#11280
04
#11320
14
#11360
04
#11400
14
#11440
04
#11480
14
#11520
04
#11560
14
#11600
04
#11640
14
b1011000000000000000100000000000010100000000000000000000000010000000000000011000000000000000100001000000000100000000000000001 %
b1011000000000000000100000000000010100000000000000000000000010000000000000011000000000000000100001000000000100000000000000001 >
b1011000000000000000100000000000010100000000000000000000000010000000000000011000000000000000100001000000000100000000000000001 H
#11680
04
#11720
14
#11760
04
#11800
14
#11840
04
#11880
14
#11920
04
#11960
14
#12000
04
#12040
14
b1011000000000000000100000000000010100000000000000000000000010000100000000011000000000000000100001000000000100000000000000001 %
b1011000000000000000100000000000010100000000000000000000000010000100000000011000000000000000100001000000000100000000000000001 >
b1011000000000000000100000000000010100000000000000000000000010000100000000011000000000000000100001000000000100000000000000001 H
#12080
04
#12120
14
#12160
04
#12200
14
#12240
04
#12280
14
#12320
04
#12360
14
#12400
04
#12440
14
#12480
04
#12520
14
#12560
04
#12600
14
#12640
04
#12680
14
#12720
04
#12760
14
#12800
04
#12840
14
#12880
04
#12920
14
#12960
04
#13000
14
#13040
04
#13080
14
#13120
04
#13160
14
#13200
04
#13240
14
b1011000000000000000100000000000010100000010000000000000000010000100000000011000000000000000100001000000000100000000000000001 %
b1011000000000000000100000000000010100000010000000000000000010000100000000011000000000000000100001000000000100000000000000001 >
b1011000000000000000100000000000010100000010000000000000000010000100000000011000000000000000100001000000000100000000000000001 H
#13280
04
#13320
14
#13360
04
#13400
14
#13440
04
#13480
14
#13520
04
#13560
14
#13600
04
#13640
14
b1011000000000000000100000000000000110000010000000000000000010000100000000011000000000000000100001000000000100000000000000001 %
b1011000000000000000100000000000000110000010000000000000000010000100000000011000000000000000100001000000000100000000000000001 >
b1011000000000000000100000000000000110000010000000000000000010000100000000011000000000000000100001000000000100000000000000001 H
#13680
04
#13720
14
#13760
04
#13800
14
#13840
04
#13880
14
#13920
04
#13960
14
#14000
04
#14040
14
b1011000000000000000100000010000000110000010000000000000000010000100000000011000000000000000100001000000000100000000000000001 %
b1011000000000000000100000010000000110000010000000000000000010000100000000011000000000000000100001000000000100000000000000001 >
b1011000000000000000100000010000000110000010000000000000000010000100000000011000000000000000100001000000000100000000000000001 H
#14080
04
#14120
14
#14160
04
#14200
14
#14240
04
#14280
14
#14320
04
#14360
14
#14400
04
#14440
14
b1011000000000000010000000010000000110000010000000000000000010000100000000011000000000000000100001000000000100000000000000001 %
b1011000000000000010000000010000000110000010000000000000000010000100000000011000000000000000100001000000000100000000000000001 >
b1011000000000000010000000010000000110000010000000000000000010000100000000011000000000000000100001000000000100000000000000001 H
#14480
04
#14520
14
#14560
04
#14600
14
#14640
04
#14680
14
#14720
04
#14760
14
#14800
04
#14840
14
#14880
04
#14920
14
#14960
04
#15000
14
#15040
04
#15080
14
#15120
04
#15160
14
#15200
04
#15240
b0 D
b1 C
14
0G
0&
#15250
bx '
bx B
bx F
0$
#15260
b0 C
x7
b0 @
19
b1011000000000000010000000010000000110000010000000000000000010000100000000011000000000000000100001000000000100000000000000001 8
#15269
b0 o
b0 J"
b1001 r
b1001 -"
b1001 ."
b1001 6"
b1001 9"
b1001 <"
b1001 >"
b1 n
b1 L"
b0 i
b0 H"
b0 B"
b1001 t
b1001 +"
b0 s
b0 A"
b0 y
b1001 "
b1001 <
b1001 a
17
1:
#15270
b1 r
b1 -"
b1 ."
b1 6"
b1 9"
b1 <"
b1 >"
b10 i
b10 H"
b1 t
b1 +"
b10 s
b10 A"
b1000000000100000000000000001 "
b1000000000100000000000000001 <
b1000000000100000000000000001 a
b1000000000100000000000000001 A
#15279
1{
#15280
0h
b10100 e
b10100 $"
b1 m
b1 '"
b1 G"
0""
b1 3
b1 Q
b1 `
b1 u
b1 &"
b1 5"
0#
b0x 2"
b0x :"
bx1 0"
bx1 ?"
b1 1"
b1 ="
04
#15289
b1 d
b1 ,"
b1 R"
b1001 .
b1001 P
b1001 c
b1001 l
b1001 4"
b1001 8"
b1001 ;"
b1001 @"
b1001 I"
b1 k
b1 K"
b1 N"
b1 P"
#15290
b1001 0
b1001 S
b1001 b
b1001 %"
b1 M
b0 O
b0 L
b11100 j
b11100 ("
b11100 C"
#15299
1K
1X
b1001 0"
b1001 ?"
b1 2"
b1 :"
b11111111 f
b11111111 O"
b11111111 Q"
#15300
1J
#15309
b1010 3"
b1010 7"
#15320
14
#15330
1""
b1 =
1#
b10100 6
b10100 !
b10100 z
b10100 !"
b10100 E"
#15340
b11 i
b11 H"
b11 s
b11 A"
b1000 y
b1000000000110000000000000001 "
b1000000000110000000000000001 <
b1000000000110000000000000001 a
b11000 q
b11000 #"
b11000 *"
b1000000000110000000000000001 A
b11000 p
b11000 )"
b11000 D"
b11000 F"
#15350
0K
b1001 m
b1001 '"
b1001 G"
0X
02
1|
01
0}
#15360
b11000 e
b11000 $"
0""
0#
b100100 j
b100100 ("
b100100 C"
04
#15400
14
#15410
1""
b10 =
1#
b11000 6
b11000 !
b11000 z
b11000 !"
b11000 E"
#15420
b100 i
b100 H"
b100 s
b100 A"
b11 y
b11000001000000000000000001 "
b11000001000000000000000001 <
b11000001000000000000000001 a
b11100 q
b11100 #"
b11100 *"
b11000001000000000000000001 A
b11100 p
b11100 )"
b11100 D"
b11100 F"
#15430
b11111111 r
b11111111 -"
b11111111 ."
b11111111 6"
b11111111 9"
b11111111 <"
b11111111 >"
b1010 m
b1010 '"
b1010 G"
b11111111 d
b11111111 ,"
b11111111 R"
b1010 3
b1010 Q
b1010 `
b1010 u
b1010 &"
b1010 5"
0|
1~
b1 v
b1 /"
#15440
b11100 e
b11100 $"
0""
bx 0
bx S
bx b
bx %"
0#
b1001 2"
b1001 :"
b11111111 0"
b11111111 ?"
b11111111 1"
b11111111 ="
b10 M
b10 O
b101100 j
b101100 ("
b101100 C"
04
#15450
b1000 m
b1000 '"
b1000 G"
b1000 3
b1000 Q
b1000 `
b1000 u
b1000 &"
b1000 5"
0J
b1000 3"
b1000 7"
#15460
b0 M
#15480
14
#15490
1""
b11 =
1#
b1001 0
b1001 S
b1001 b
b1001 %"
b11100 6
b11100 !
b11100 z
b11100 !"
b11100 E"
#15500
b100 o
b100 J"
b10 n
b10 L"
b0 i
b0 H"
b10 t
b10 +"
b0 s
b0 A"
b1011 y
b1011000000000000010000000010 "
b1011000000000000010000000010 <
b1011000000000000010000000010 a
b100000 q
b100000 #"
b100000 *"
b1011000000000000010000000010 A
1J
b100000 p
b100000 )"
b100000 D"
b100000 F"
#15510
b11111111 m
b11111111 '"
b11111111 G"
b10 V
12
b1 d
b1 ,"
b1 R"
b10 r
b10 -"
b10 ."
b10 6"
b10 9"
b10 <"
b10 >"
b11111111 3
b11111111 Q
b11111111 `
b11111111 u
b11111111 &"
b11111111 5"
1/
0{
0~
1}
b0 v
b0 /"
#15520
b10 m
b10 '"
b10 G"
bx 0
bx S
bx b
bx %"
b10 3
b10 Q
b10 `
b10 u
b10 &"
b10 5"
0#
b0 2"
b0 :"
b1011 0"
b1011 ?"
b11 M
b111 O
b111 L
b10 1"
b10 ="
b1000 .
b1000 P
b1000 c
b1000 l
b1000 4"
b1000 8"
b1000 ;"
b1000 @"
b1000 I"
b100000 j
b100000 ("
b100000 C"
04
#15530
b0 0
b0 S
b0 b
b0 %"
b0 V
b10 M
b0 O
b0 L
b1010 0"
b1010 ?"
xJ
#15539
b100000 e
b100000 $"
0""
0/
02
1K
1X
#15540
1J
b1010 3"
b1010 7"
#15560
14
#15570
1""
b0 =
b10 ?
1#
b100000 6
b1000 0
b1000 S
b1000 b
b1000 %"
b100000 !
b100000 z
b100000 !"
b100000 E"
#15580
bx o
bx J"
bx r
bx -"
bx ."
bx 6"
bx 9"
bx <"
bx >"
bx n
bx L"
bx i
bx H"
bx B"
bx t
bx +"
bx s
bx A"
bx y
b1 C
bx "
bx <
bx a
07
b100100 q
b100100 #"
b100100 *"
b1000000000100000000000000001 A
bx 8
b0x @
09
b100100 p
b100100 )"
b100100 D"
b100100 F"
